{
    "user6": {
        "friends": ["friend1", "friend2", "friend3"],
        "posts": [
            ["post1", 5],
            ["post2", 4],
            ["post3", 3]
        ]
    },
    "user2": {
        "friends": ["friend2", "friend4"],
        "posts": [
            ["post1", 2],
            ["post2", 3]
        ]
    },
    "user1": {
        "friends": ["friend1", "friend3", "friend4"],
        "posts": [
            ["post1", 4],
            ["post2", 5],
            ["post3", 2]
        ]
    },
    "user4": {
        "friends": ["friend2", "friend3"],
        "posts": [
            ["post1", 3],
            ["post2", 4]
        ]
    },
    "user5": {
        "friends": ["friend1", "friend2", "friend4"],
        "posts": [
            ["post1", 1],
            ["post2", 2],
            ["post3", 3]
        ]
    },
    "user3": {
        "friends": ["friend1", "friend2", "friend3"],
        "posts": [
            ["post1", 5],
            ["post2", 4],
            ["post3", 3]
        ]
    }
}
